<?xml version="1.0" encoding="UTF-8"?>
<svg width="8px" height="9px" viewBox="0 0 8 9" version="1.1" xmlns="http://www.w3.org/2000/svg" xmlns:xlink="http://www.w3.org/1999/xlink">
    <!-- Generator: Sketch 51.1 (57501) - http://www.bohemiancoding.com/sketch -->
    <title>Triangle Copy 2</title>
    <desc>Created with Sketch.</desc>
    <defs></defs>
    <g id="Page-1" stroke="none" stroke-width="1" fill="none" fill-rule="evenodd">
        <g id="Landing_Desctop" transform="translate(-426.000000, -1058.000000)" fill="#781E92">
            <polygon id="Triangle-Copy-2" transform="translate(430.000000, 1062.500000) scale(1, -1) translate(-430.000000, -1062.500000) " points="430 1058 434 1067 426 1067"></polygon>
        </g>
    </g>
</svg>