<?xml version="1.0" standalone="no"?>
<!DOCTYPE svg PUBLIC "-//W3C//DTD SVG 20010904//EN"
 "http://www.w3.org/TR/2001/REC-SVG-20010904/DTD/svg10.dtd">
<svg version="1.0" xmlns="http://www.w3.org/2000/svg"
 width="700.000000pt" height="700.000000pt" viewBox="0 0 700.000000 700.000000"
 preserveAspectRatio="xMidYMid meet">
<metadata>
Created by potrace 1.11, written by Peter Selinger 2001-2013
</metadata>
<g transform="translate(0.000000,700.000000) scale(0.100000,-0.100000)"
fill="#000000" stroke="none">
<path d="M2735 6660 c-107 -12 -199 -26 -362 -56 -107 -20 -324 -87 -473 -145
-723 -286 -1319 -855 -1630 -1557 -28 -64 -56 -126 -61 -137 -5 -11 -29 -82
-54 -157 -59 -182 -102 -360 -121 -508 -3 -25 -8 -56 -10 -70 -18 -103 -25
-484 -11 -630 6 -64 18 -151 43 -300 23 -142 97 -392 170 -571 184 -456 491
-873 872 -1186 63 -52 99 -89 95 -96 -4 -7 -46 -65 -95 -129 -48 -64 -88 -119
-88 -122 0 -10 196 -145 296 -204 230 -137 446 -234 699 -315 112 -36 268 -79
340 -93 22 -4 42 -8 45 -9 3 0 27 -4 53 -9 27 -4 56 -9 65 -11 40 -7 160 -20
287 -30 75 -7 375 -7 439 -1 150 15 310 35 386 51 14 2 50 10 80 16 328 66
732 226 1048 413 91 54 248 160 275 185 4 5 -34 62 -86 127 -120 153 -114 141
-80 167 91 71 180 150 271 240 l102 101 86 2 c519 11 924 181 1257 528 186
193 366 484 413 667 25 96 16 246 -19 322 -82 180 -266 324 -565 441 -250 98
-693 203 -977 233 -98 10 -444 10 -542 0 -81 -9 -82 -8 -87 15 -3 12 -17 75
-31 138 -67 298 -192 700 -285 916 -133 309 -291 516 -474 623 -154 89 -344
51 -413 -84 -40 -76 -45 -150 -29 -395 3 -36 7 -117 11 -180 3 -63 8 -135 10
-159 l4 -44 -47 7 c-140 20 -410 27 -527 13 -77 -9 -214 -42 -290 -70 -55 -19
-202 -90 -250 -120 -59 -37 -136 -91 -180 -126 -34 -28 -52 -36 -56 -28 -4 7
-26 62 -48 123 -69 188 -169 376 -269 509 -113 150 -212 210 -352 214 -118 3
-219 -63 -278 -184 -38 -76 -71 -196 -80 -283 -9 -98 -6 -443 13 -1267 3 -131
10 -505 20 -1030 5 -259 17 -849 17 -855 0 -3 0 -18 -1 -34 -1 -28 -1 -28 -74
35 -546 480 -876 1117 -954 1849 -19 178 -8 531 23 700 2 14 7 41 10 60 14 92
80 338 121 450 80 220 179 415 315 618 76 114 69 104 171 227 414 496 996 836
1622 949 17 3 39 8 51 10 25 5 103 15 204 26 78 9 536 6 580 -3 14 -3 46 -8
71 -11 236 -33 456 -93 704 -194 80 -33 302 -149 385 -202 191 -121 337 -238
498 -397 57 -57 106 -103 109 -103 3 0 41 30 84 67 92 77 98 55 -47 199 -308
306 -696 551 -1109 699 -85 30 -245 80 -293 90 -12 3 -32 7 -44 10 -28 7 -113
24 -150 30 -16 3 -42 7 -60 11 -18 3 -64 9 -103 13 -38 5 -77 10 -85 11 -51 6
-497 6 -555 0z m1174 -1356 c109 -74 228 -228 315 -409 130 -270 283 -760 366
-1175 5 -25 11 -54 14 -65 10 -51 20 -111 18 -117 -1 -3 29 2 66 13 150 44
230 53 432 53 192 0 302 -10 495 -44 357 -64 590 -131 805 -231 342 -160 425
-329 289 -585 -99 -187 -190 -316 -313 -443 -242 -249 -525 -386 -916 -440
-82 -12 -371 -12 -470 0 -41 4 -95 11 -120 13 -41 5 -117 15 -225 31 -39 6
-235 40 -285 50 -14 3 -41 8 -60 11 -257 43 -1016 245 -1175 314 -11 4 -39 15
-61 24 l-42 15 -11 -27 c-32 -82 -61 -166 -61 -178 0 -8 5 -14 12 -14 6 0 64
-18 129 -41 l117 -41 -26 -62 c-36 -83 -94 -185 -156 -276 -74 -106 -89 -144
-89 -215 1 -127 83 -234 227 -294 41 -17 83 -32 93 -34 10 -1 23 -5 28 -9 6
-4 67 -5 135 -4 140 3 202 20 296 82 97 64 217 202 291 334 34 61 83 191 83
221 0 23 -7 23 113 -1 53 -11 125 -24 160 -30 98 -16 120 -20 147 -26 13 -3
40 -8 60 -10 19 -2 46 -7 60 -9 14 -3 86 -13 160 -22 l135 -16 -50 -46 c-27
-25 -52 -48 -55 -51 -40 -40 -247 -192 -350 -256 -268 -168 -650 -317 -945
-369 -16 -2 -39 -7 -50 -9 -11 -2 -45 -7 -75 -11 -30 -4 -64 -9 -75 -11 -36
-7 -248 -18 -345 -17 -339 0 -693 68 -1020 195 -123 49 -360 167 -445 224
l-60 40 -1 64 c-1 36 -5 216 -9 400 -3 184 -8 416 -10 515 -2 99 -6 331 -10
515 -7 393 -11 560 -21 1040 -10 490 -10 807 -1 858 18 95 48 171 82 208 30
31 39 36 66 30 33 -6 95 -51 141 -101 76 -81 153 -220 234 -417 40 -98 194
-524 194 -538 0 -3 44 40 98 95 234 241 520 411 740 441 26 3 56 8 67 11 11 3
88 6 170 8 134 3 194 -2 389 -30 25 -3 83 -19 170 -46 44 -14 58 -11 52 9 -9
29 -18 104 -21 167 -6 136 -17 332 -20 365 -23 260 -23 351 -1 386 15 22 22
24 54 18 20 -4 52 -17 71 -30z m-347 -3387 l36 -12 -40 -80 c-22 -44 -56 -104
-76 -133 l-36 -53 49 -44 c28 -25 55 -45 60 -45 14 0 95 130 144 233 27 57 47
87 55 84 7 -3 50 -13 95 -24 l82 -18 -4 -30 c-21 -143 -213 -396 -347 -459
-36 -17 -64 -21 -145 -21 -124 1 -187 20 -250 78 -68 64 -66 82 29 226 68 102
133 221 169 312 l15 37 64 -20 c34 -11 79 -25 100 -31z"/>
<path d="M3520 3841 c-75 -40 -103 -124 -69 -201 33 -74 145 -107 219 -63 31
18 70 91 70 130 0 50 -38 110 -84 132 -52 26 -90 26 -136 2z"/>
<path d="M2899 3709 c-46 -27 -78 -90 -74 -146 11 -151 218 -187 284 -49 26
53 26 79 1 131 -37 76 -138 106 -211 64z"/>
<path d="M5499 3256 c-2 -2 -29 -7 -59 -10 -117 -14 -203 -88 -194 -168 6 -61
79 -157 178 -236 77 -61 289 -174 431 -230 74 -29 106 -36 176 -38 97 -4 138
5 225 47 91 44 206 167 268 286 42 83 0 162 -116 213 -45 19 -247 75 -308 84
-19 3 -44 7 -55 9 -46 9 -93 17 -140 22 -27 4 -61 8 -75 11 -33 6 -326 15
-331 10z"/>
<path d="M1735 5942 c-107 -62 -267 -168 -300 -199 -11 -10 -40 -34 -65 -53
-24 -19 -65 -54 -90 -77 -25 -23 -59 -55 -77 -70 l-32 -29 76 -77 76 -76 76
68 c174 154 314 256 462 333 l86 44 -49 97 c-26 53 -52 97 -56 97 -4 0 -52
-26 -107 -58z"/>
<path d="M5690 5253 c-52 -47 -133 -120 -180 -162 -46 -42 -100 -90 -118 -106
l-33 -30 278 -94 c153 -52 283 -96 290 -98 8 -3 9 6 2 34 -5 21 -34 142 -64
268 -30 127 -57 240 -60 253 -3 12 -9 22 -13 22 -4 -1 -50 -40 -102 -87z"/>
<path d="M928 5223 c-30 -38 -64 -81 -76 -97 l-22 -29 96 -64 c53 -36 100 -61
105 -56 4 4 35 46 68 92 l59 84 -84 68 c-46 38 -86 69 -89 69 -2 0 -28 -30
-57 -67z"/>
</g>
</svg>
